{
  "version": 2,
  "projects": {
    "realm-a-client-a": {
      "projectType": "application",
      "root": "apps/realm-a/client-a",
      "sourceRoot": "apps/realm-a/client-a/src",
      "prefix": "workspace",
      "targets": {
        "build": {
          "executor": "@angular-devkit/build-angular:browser",
          "options": {
            "outputPath": "dist/realm-a-client-a/browser",
            "index": "apps/realm-a/client-a/src/index.html",
            "main": "apps/realm-a/client-a/src/main.ts",
            "polyfills": "apps/realm-a/client-a/src/polyfills.ts",
            "tsConfig": "apps/realm-a/client-a/tsconfig.app.json",
            "aot": true,
            "assets": [
              "apps/realm-a/client-a/src/favicon.ico",
              "apps/realm-a/client-a/src/assets"
            ],
            "styles": [
              "apps/realm-a/client-a/src/styles.scss"
            ],
            "scripts": []
          },
          "configurations": {
            "production": {
              "fileReplacements": [
                {
                  "replace": "apps/realm-a/client-a/src/environments/environment.ts",
                  "with": "apps/realm-a/client-a/src/environments/environment.prod.ts"
                }
              ],
              "optimization": true,
              "outputHashing": "all",
              "sourceMap": false,
              "namedChunks": false,
              "extractLicenses": true,
              "vendorChunk": false,
              "buildOptimizer": true,
              "budgets": [
                {
                  "type": "initial",
                  "maximumWarning": "2mb",
                  "maximumError": "5mb"
                },
                {
                  "type": "anyComponentStyle",
                  "maximumWarning": "6kb",
                  "maximumError": "10kb"
                }
              ]
            }
          }
        },
        "serve": {
          "executor": "@angular-devkit/build-angular:dev-server",
          "options": {
            "browserTarget": "realm-a-client-a:build"
          },
          "configurations": {
            "production": {
              "browserTarget": "realm-a-client-a:build:production"
            }
          }
        },
        "extract-i18n": {
          "executor": "@angular-devkit/build-angular:extract-i18n",
          "options": {
            "browserTarget": "realm-a-client-a:build"
          }
        },
        "lint": {
          "executor": "@nrwl/linter:eslint",
          "options": {
            "lintFilePatterns": [
              "apps/realm-a/client-a/src/**/*.ts",
              "apps/realm-a/client-a/src/**/*.html"
            ]
          }
        },
        "test": {
          "executor": "@nrwl/jest:jest",
          "outputs": [
            "coverage/apps/realm-a/client-a"
          ],
          "options": {
            "jestConfig": "apps/realm-a/client-a/jest.config.js",
            "passWithNoTests": true
          }
        },
        "server": {
          "executor": "@angular-devkit/build-angular:server",
          "options": {
            "outputPath": "dist/realm-a-client-a/server",
            "main": "apps/realm-a/client-a/src/main.server.ts",
            "tsConfig": "apps/realm-a/client-a/tsconfig.server.json"
          },
          "configurations": {
            "production": {
              "outputHashing": "media",
              "fileReplacements": [
                {
                  "replace": "apps/realm-a/client-a/src/environments/environment.ts",
                  "with": "apps/realm-a/client-a/src/environments/environment.prod.ts"
                }
              ],
              "sourceMap": false,
              "optimization": true
            }
          }
        },
        "app-shell": {
          "executor": "@angular-devkit/build-angular:app-shell",
          "options": {
            "browserTarget": "realm-a-client-a:build",
            "serverTarget": "realm-a-client-a:server",
            "route": "shell"
          },
          "configurations": {
            "production": {
              "browserTarget": "realm-a-client-a:build:production",
              "serverTarget": "realm-a-client-a:server:production"
            }
          }
        }
      }
    },
    "realm-a-client-a-e2e": {
      "root": "apps/realm-a/client-a-e2e",
      "sourceRoot": "apps/realm-a/client-a-e2e/src",
      "projectType": "application",
      "targets": {
        "e2e": {
          "executor": "@nrwl/cypress:cypress",
          "options": {
            "cypressConfig": "apps/realm-a/client-a-e2e/cypress.json",
            "tsConfig": "apps/realm-a/client-a-e2e/tsconfig.e2e.json",
            "devServerTarget": "realm-a-client-a:serve"
          },
          "configurations": {
            "production": {
              "devServerTarget": "realm-a-client-a:serve:production"
            }
          }
        },
        "lint": {
          "executor": "@nrwl/linter:eslint",
          "options": {
            "lintFilePatterns": [
              "apps/realm-a/client-a-e2e/**/*.{js,ts}"
            ]
          }
        }
      }
    },
    "apps-realm-a-client-a-private-route": {
      "projectType": "library",
      "root": "libs/apps/realm-a/client-a/private/route",
      "sourceRoot": "libs/apps/realm-a/client-a/private/route/src",
      "prefix": "workspace",
      "targets": {
        "build": {
          "executor": "@nrwl/angular:package",
          "options": {
            "tsConfig": "libs/apps/realm-a/client-a/private/route/tsconfig.lib.json",
            "project": "libs/apps/realm-a/client-a/private/route/ng-package.json"
          },
          "configurations": {
            "production": {
              "tsConfig": "libs/apps/realm-a/client-a/private/route/tsconfig.lib.prod.json"
            }
          }
        },
        "lint": {
          "executor": "@nrwl/linter:eslint",
          "options": {
            "lintFilePatterns": [
              "libs/apps/realm-a/client-a/private/route/src/**/*.ts",
              "libs/apps/realm-a/client-a/private/route/src/**/*.html"
            ]
          }
        },
        "test": {
          "executor": "@nrwl/jest:jest",
          "outputs": [
            "coverage/libs/apps/realm-a/client-a/private/route"
          ],
          "options": {
            "jestConfig": "libs/apps/realm-a/client-a/private/route/jest.config.js",
            "passWithNoTests": true
          }
        }
      }
    },
    "apps-realm-a-client-a-private-routes-route-a-route": {
      "projectType": "library",
      "root": "libs/apps/realm-a/client-a/private/routes/route-a/route",
      "sourceRoot": "libs/apps/realm-a/client-a/private/routes/route-a/route/src",
      "prefix": "workspace",
      "targets": {
        "build": {
          "executor": "@nrwl/angular:package",
          "options": {
            "tsConfig": "libs/apps/realm-a/client-a/private/routes/route-a/route/tsconfig.lib.json",
            "project": "libs/apps/realm-a/client-a/private/routes/route-a/route/ng-package.json"
          },
          "configurations": {
            "production": {
              "tsConfig": "libs/apps/realm-a/client-a/private/routes/route-a/route/tsconfig.lib.prod.json"
            }
          }
        },
        "lint": {
          "executor": "@nrwl/linter:eslint",
          "options": {
            "lintFilePatterns": [
              "libs/apps/realm-a/client-a/private/routes/route-a/route/src/**/*.ts",
              "libs/apps/realm-a/client-a/private/routes/route-a/route/src/**/*.html"
            ]
          }
        },
        "test": {
          "executor": "@nrwl/jest:jest",
          "outputs": [
            "coverage/libs/apps/realm-a/client-a/private/routes/route-a/route"
          ],
          "options": {
            "jestConfig": "libs/apps/realm-a/client-a/private/routes/route-a/route/jest.config.js",
            "passWithNoTests": true
          }
        }
      }
    },
    "apps-realm-a-client-a-private-routes-route-b-route": {
      "projectType": "library",
      "root": "libs/apps/realm-a/client-a/private/routes/route-b/route",
      "sourceRoot": "libs/apps/realm-a/client-a/private/routes/route-b/route/src",
      "prefix": "workspace",
      "targets": {
        "build": {
          "executor": "@nrwl/angular:package",
          "options": {
            "tsConfig": "libs/apps/realm-a/client-a/private/routes/route-b/route/tsconfig.lib.json",
            "project": "libs/apps/realm-a/client-a/private/routes/route-b/route/ng-package.json"
          },
          "configurations": {
            "production": {
              "tsConfig": "libs/apps/realm-a/client-a/private/routes/route-b/route/tsconfig.lib.prod.json"
            }
          }
        },
        "lint": {
          "executor": "@nrwl/linter:eslint",
          "options": {
            "lintFilePatterns": [
              "libs/apps/realm-a/client-a/private/routes/route-b/route/src/**/*.ts",
              "libs/apps/realm-a/client-a/private/routes/route-b/route/src/**/*.html"
            ]
          }
        },
        "test": {
          "executor": "@nrwl/jest:jest",
          "outputs": [
            "coverage/libs/apps/realm-a/client-a/private/routes/route-b/route"
          ],
          "options": {
            "jestConfig": "libs/apps/realm-a/client-a/private/routes/route-b/route/jest.config.js",
            "passWithNoTests": true
          }
        }
      }
    },
    "apps-realm-a-client-a-public-route": {
      "projectType": "library",
      "root": "libs/apps/realm-a/client-a/public/route",
      "sourceRoot": "libs/apps/realm-a/client-a/public/route/src",
      "prefix": "workspace",
      "targets": {
        "build": {
          "executor": "@nrwl/angular:package",
          "options": {
            "tsConfig": "libs/apps/realm-a/client-a/public/route/tsconfig.lib.json",
            "project": "libs/apps/realm-a/client-a/public/route/ng-package.json"
          },
          "configurations": {
            "production": {
              "tsConfig": "libs/apps/realm-a/client-a/public/route/tsconfig.lib.prod.json"
            }
          }
        },
        "lint": {
          "executor": "@nrwl/linter:eslint",
          "options": {
            "lintFilePatterns": [
              "libs/apps/realm-a/client-a/public/route/src/**/*.ts",
              "libs/apps/realm-a/client-a/public/route/src/**/*.html"
            ]
          }
        },
        "test": {
          "executor": "@nrwl/jest:jest",
          "outputs": [
            "coverage/libs/apps/realm-a/client-a/public/route"
          ],
          "options": {
            "jestConfig": "libs/apps/realm-a/client-a/public/route/jest.config.js",
            "passWithNoTests": true
          }
        }
      }
    },
    "apps-realm-a-client-a-public-routes-route-z-route": {
      "projectType": "library",
      "root": "libs/apps/realm-a/client-a/public/routes/route-z/route",
      "sourceRoot": "libs/apps/realm-a/client-a/public/routes/route-z/route/src",
      "prefix": "workspace",
      "targets": {
        "build": {
          "executor": "@nrwl/angular:package",
          "options": {
            "tsConfig": "libs/apps/realm-a/client-a/public/routes/route-z/route/tsconfig.lib.json",
            "project": "libs/apps/realm-a/client-a/public/routes/route-z/route/ng-package.json"
          },
          "configurations": {
            "production": {
              "tsConfig": "libs/apps/realm-a/client-a/public/routes/route-z/route/tsconfig.lib.prod.json"
            }
          }
        },
        "lint": {
          "executor": "@nrwl/linter:eslint",
          "options": {
            "lintFilePatterns": [
              "libs/apps/realm-a/client-a/public/routes/route-z/route/src/**/*.ts",
              "libs/apps/realm-a/client-a/public/routes/route-z/route/src/**/*.html"
            ]
          }
        },
        "test": {
          "executor": "@nrwl/jest:jest",
          "outputs": [
            "coverage/libs/apps/realm-a/client-a/public/routes/route-z/route"
          ],
          "options": {
            "jestConfig": "libs/apps/realm-a/client-a/public/routes/route-z/route/jest.config.js",
            "passWithNoTests": true
          }
        }
      }
    },
    "apps-realm-a-client-a-public-routes-route-y-route": {
      "projectType": "library",
      "root": "libs/apps/realm-a/client-a/public/routes/route-y/route",
      "sourceRoot": "libs/apps/realm-a/client-a/public/routes/route-y/route/src",
      "prefix": "workspace",
      "targets": {
        "build": {
          "executor": "@nrwl/angular:package",
          "options": {
            "tsConfig": "libs/apps/realm-a/client-a/public/routes/route-y/route/tsconfig.lib.json",
            "project": "libs/apps/realm-a/client-a/public/routes/route-y/route/ng-package.json"
          },
          "configurations": {
            "production": {
              "tsConfig": "libs/apps/realm-a/client-a/public/routes/route-y/route/tsconfig.lib.prod.json"
            }
          }
        },
        "lint": {
          "executor": "@nrwl/linter:eslint",
          "options": {
            "lintFilePatterns": [
              "libs/apps/realm-a/client-a/public/routes/route-y/route/src/**/*.ts",
              "libs/apps/realm-a/client-a/public/routes/route-y/route/src/**/*.html"
            ]
          }
        },
        "test": {
          "executor": "@nrwl/jest:jest",
          "outputs": [
            "coverage/libs/apps/realm-a/client-a/public/routes/route-y/route"
          ],
          "options": {
            "jestConfig": "libs/apps/realm-a/client-a/public/routes/route-y/route/jest.config.js",
            "passWithNoTests": true
          }
        }
      }
    }
  },
  "cli": {
    "defaultCollection": "@nrwl/angular"
  },
  "generators": {
    "@nrwl/angular:application": {
      "style": "scss",
      "linter": "eslint",
      "unitTestRunner": "jest",
      "e2eTestRunner": "cypress"
    },
    "@nrwl/angular:library": {
      "style": "scss",
      "linter": "eslint",
      "unitTestRunner": "jest",
      "strict": true
    },
    "@nrwl/angular:component": {
      "style": "scss"
    }
  },
  "defaultProject": "realm-a-client-a"
}